[gd_scene load_steps=8 format=3 uid="uid://dwgipyq0g3h3t"]

[ext_resource type="Texture2D" uid="uid://b3d1i8g85gw4m" path="res://Assets/Conveyor.png" id="1_7e2f4"]
[ext_resource type="Script" path="res://Scripts/Conveyor.gd" id="1_33axd"]

[sub_resource type="AtlasTexture" id="AtlasTexture_s5cgt"]
atlas = ExtResource("1_7e2f4")
region = Rect2(0, 0, 384, 128)

[sub_resource type="AtlasTexture" id="AtlasTexture_ypmml"]
atlas = ExtResource("1_7e2f4")
region = Rect2(0, 128, 384, 128)

[sub_resource type="AtlasTexture" id="AtlasTexture_5o18j"]
atlas = ExtResource("1_7e2f4")
region = Rect2(384, 128, 384, 128)

[sub_resource type="SpriteFrames" id="SpriteFrames_qttw1"]
animations = [{
"frames": [{
"duration": 1.0,
"texture": SubResource("AtlasTexture_s5cgt")
}],
"loop": true,
"name": &"Idle",
"speed": 5.0
}, {
"frames": [{
"duration": 1.0,
"texture": SubResource("AtlasTexture_ypmml")
}, {
"duration": 1.0,
"texture": SubResource("AtlasTexture_5o18j")
}],
"loop": true,
"name": &"Moving",
"speed": 10.0
}]

[sub_resource type="RectangleShape2D" id="RectangleShape2D_awiuf"]
size = Vector2(384, 40)

[node name="StaticBody2D" type="StaticBody2D"]
script = ExtResource("1_33axd")

[node name="AnimatedSprite2D" type="AnimatedSprite2D" parent="."]
sprite_frames = SubResource("SpriteFrames_qttw1")
animation = &"Moving"
frame_progress = 1.0

[node name="CollisionShape2D" type="CollisionShape2D" parent="."]
position = Vector2(0, 4)
shape = SubResource("RectangleShape2D_awiuf")
