[gd_scene load_steps=6 format=3 uid="uid://j30kccx4efc7"]

[ext_resource type="Texture2D" uid="uid://kvvmvnpnovw0" path="res://SmallAssets/Interactable/PacketDispenser.png" id="1_2hewt"]
[ext_resource type="Script" path="res://Scripts/PacketDispenser.gd" id="1_gii6n"]
[ext_resource type="PackedScene" uid="uid://calbgt86dt5e1" path="res://Player_Push_Piston.tscn" id="2_ytgou"]

[sub_resource type="RectangleShape2D" id="RectangleShape2D_llu68"]
size = Vector2(16, 23.875)

[sub_resource type="RectangleShape2D" id="RectangleShape2D_j8gnx"]
size = Vector2(16.1918, 9.8125)

[node name="PacketDispenser" type="CharacterBody2D"]
position = Vector2(0.128, 0)
scale = Vector2(8, 8)
script = ExtResource("1_gii6n")

[node name="PacketDispenserSprite" type="Sprite2D" parent="."]
position = Vector2(8, 12)
scale = Vector2(0.5, 0.5)
texture = ExtResource("1_2hewt")

[node name="CollisionShape2D" type="CollisionShape2D" parent="."]
position = Vector2(8, 11.9375)
shape = SubResource("RectangleShape2D_llu68")

[node name="PlayerPushPiston" parent="." instance=ExtResource("2_ytgou")]
position = Vector2(15.984, 24)
scale = Vector2(1, 1)
push_distance = 12

[node name="PlayerDetectionArea" type="Area2D" parent="."]

[node name="CollisionShape2D" type="CollisionShape2D" parent="PlayerDetectionArea"]
position = Vector2(12.484, 21)
shape = SubResource("RectangleShape2D_j8gnx")

[node name="PacketSpawnPoint" type="Node2D" parent="."]
position = Vector2(7.984, 15)

[connection signal="body_entered" from="PlayerDetectionArea" to="." method="_on_player_detection_area_body_entered"]
[connection signal="body_exited" from="PlayerDetectionArea" to="." method="_on_player_detection_area_body_exited"]
